…
```r
# predict medv for the training set
stats::predict(lm_fit, new_data = Boston, type = "conf_int") %>% 
  dplyr::bind_cols(Boston) %>% 
  dplyr::select(medv, tidyr::starts_with(".pred"))
```

```
## # A tibble: 506 x 3
##     medv .pred_lower .pred_upper
##    <dbl>       <dbl>       <dbl>
##  1  24         29.0        30.6 
##  2  21.6       25.3        26.5 
##  3  34.7       29.9        31.6 
##  4  33.4       30.9        32.7 
##  5  36.2       28.7        30.3 
##  6  28.7       28.8        30.4 
##  7  22.9       22.2        23.3 
##  8  27.1       15.6        17.1 
##  9  16.5        4.74        7.51
## 10  18.9       17.7        19.0 
## # ... with 496 more rows
```
…
